{
  "SourceFile": "C:/Users/daniel/Projects/Sensio/wiki/assets/test-photos/copyrighted-image.jpg",
  "errors": [],
  "ExifToolVersion": 11.92,
  "FileName": "copyrighted-image.jpg",
  "Directory": "C:/Users/daniel/Projects/Sensio/wiki/assets/test-photos",
  "FileSize": "1887 kB",
  "FileModifyDate": {
    "year": 2020,
    "month": 4,
    "day": 2,
    "hour": 15,
    "minute": 14,
    "second": 17,
    "millisecond": 0,
    "tzoffsetMinutes": 120,
    "rawValue": "2020:04:02 15:14:17+02:00"
  },
  "FileAccessDate": {
    "year": 2020,
    "month": 4,
    "day": 1,
    "hour": 14,
    "minute": 17,
    "second": 46,
    "millisecond": 0,
    "tzoffsetMinutes": 120,
    "rawValue": "2020:04:01 14:17:46+02:00"
  },
  "FileCreateDate": {
    "year": 2020,
    "month": 4,
    "day": 1,
    "hour": 13,
    "minute": 14,
    "second": 51,
    "millisecond": 0,
    "tzoffsetMinutes": 120,
    "rawValue": "2020:04:01 13:14:51+02:00"
  },
  "FilePermissions": "rw-rw-rw-",
  "FileType": "JPEG",
  "FileTypeExtension": "jpg",
  "MIMEType": "image/jpeg",
  "ExifByteOrder": "Little-endian (Intel, II)",
  "ImageDescription": "I took the macro photo and she decided to paint it.",
  "Make": "Canon",
  "Model": "Canon EOS 700D",
  "XResolution": 72,
  "YResolution": 72,
  "ResolutionUnit": "inches",
  "Software": "Adobe Photoshop Lightroom Classic 7.4 (Windows)",
  "ModifyDate": {
    "year": 2020,
    "month": 3,
    "day": 29,
    "hour": 13,
    "minute": 7,
    "second": 3,
    "millisecond": 0,
    "rawValue": "2020:03:29 13:07:03"
  },
  "Artist": "daniel@woss.io",
  "Copyright": "daniel@woss.io",
  "ExposureTime": "1/25",
  "FNumber": 4.5,
  "ExposureProgram": "Aperture-priority AE",
  "ISO": 1600,
  "SensitivityType": "Recommended Exposure Index",
  "RecommendedExposureIndex": 1600,
  "ExifVersion": "0230",
  "DateTimeOriginal": {
    "year": 2020,
    "month": 3,
    "day": 28,
    "hour": 20,
    "minute": 25,
    "second": 15,
    "millisecond": 0,
    "rawValue": "2020:03:28 20:25:15"
  },
  "CreateDate": {
    "year": 2020,
    "month": 3,
    "day": 28,
    "hour": 20,
    "minute": 25,
    "second": 15,
    "millisecond": 0,
    "rawValue": "2020:03:28 20:25:15"
  },
  "ShutterSpeedValue": "1/25",
  "ApertureValue": 4.5,
  "ExposureCompensation": "-1/3",
  "MaxApertureValue": 4.4,
  "MeteringMode": "Multi-segment",
  "Flash": "Off, Did not fire",
  "FocalLength": "35.0 mm",
  "SubSecTimeDigitized": "00",
  "ColorSpace": "sRGB",
  "FocalPlaneXResolution": 5798.657718,
  "FocalPlaneYResolution": 5788.944724,
  "FocalPlaneResolutionUnit": "inches",
  "CustomRendered": "Normal",
  "ExposureMode": "Auto",
  "WhiteBalance": "Manual",
  "SceneCaptureType": "Standard",
  "SerialNumber": "083031034346",
  "LensInfo": "18-135mm f/?",
  "LensModel": "EF-S18-135mm f/3.5-5.6 IS STM",
  "LensSerialNumber": "0000050d92",
  "DisplayedUnitsX": "inches",
  "DisplayedUnitsY": "inches",
  "CurrentIPTCDigest": "73c222c0fb58d93671e0fce866a1a208",
  "CodedCharacterSet": "UTF8",
  "ApplicationRecordVersion": 4,
  "ObjectName": "Artist deep into to wine and flower",
  "Keywords": ["elena_tairova", "flickr", "indoor", "painting", "red-wine"],
  "TimeCreated": {
    "hour": 20,
    "minute": 25,
    "second": 15,
    "millisecond": 0
  },
  "DigitalCreationDate": {
    "year": 2020,
    "month": 3,
    "day": 28
  },
  "DigitalCreationTime": {
    "hour": 20,
    "minute": 25,
    "second": 15,
    "millisecond": 0
  },
  "By-line": "daniel@woss.io",
  "CopyrightNotice": "daniel@woss.io",
  "Caption-Abstract": "I took the macro photo and she decided to paint it.",
  "CopyrightFlag": true,
  "IPTCDigest": "73c222c0fb58d93671e0fce866a1a208",
  "ProfileCMMType": "Linotronic",
  "ProfileVersion": "2.1.0",
  "ProfileClass": "Display Device Profile",
  "ColorSpaceData": "RGB ",
  "ProfileConnectionSpace": "XYZ ",
  "ProfileDateTime": {
    "year": 1998,
    "month": 2,
    "day": 9,
    "hour": 6,
    "minute": 49,
    "second": 0,
    "millisecond": 0,
    "rawValue": "1998:02:09 06:49:00"
  },
  "ProfileFileSignature": "acsp",
  "PrimaryPlatform": "Microsoft Corporation",
  "CMMFlags": "Not Embedded, Independent",
  "DeviceManufacturer": "Hewlett-Packard",
  "DeviceModel": "sRGB",
  "DeviceAttributes": "Reflective, Glossy, Positive, Color",
  "RenderingIntent": "Perceptual",
  "ConnectionSpaceIlluminant": "0.9642 1 0.82491",
  "ProfileCreator": "Hewlett-Packard",
  "ProfileID": 0,
  "ProfileCopyright": "Copyright (c) 1998 Hewlett-Packard Company",
  "ProfileDescription": "sRGB IEC61966-2.1",
  "MediaWhitePoint": "0.95045 1 1.08905",
  "MediaBlackPoint": "0 0 0",
  "RedMatrixColumn": "0.43607 0.22249 0.01392",
  "GreenMatrixColumn": "0.38515 0.71687 0.09708",
  "BlueMatrixColumn": "0.14307 0.06061 0.7141",
  "DeviceMfgDesc": "IEC http://www.iec.ch",
  "DeviceModelDesc": "IEC 61966-2.1 Default RGB colour space - sRGB",
  "ViewingCondDesc": "Reference Viewing Condition in IEC61966-2.1",
  "ViewingCondIlluminant": "19.6445 20.3718 16.8089",
  "ViewingCondSurround": "3.92889 4.07439 3.36179",
  "ViewingCondIlluminantType": "D50",
  "Luminance": "76.03647 80 87.12462",
  "MeasurementObserver": "CIE 1931",
  "MeasurementBacking": "0 0 0",
  "MeasurementGeometry": "Unknown",
  "MeasurementFlare": "0.999%",
  "MeasurementIlluminant": "D65",
  "Technology": "Cathode Ray Tube Display",
  "RedTRC": "(Binary data 2060 bytes, use -b option to extract)",
  "GreenTRC": "(Binary data 2060 bytes, use -b option to extract)",
  "BlueTRC": "(Binary data 2060 bytes, use -b option to extract)",
  "XMPToolkit": "Adobe XMP Core 5.6-c140 79.160451, 2017/05/06-01:08:21        ",
  "MetadataDate": {
    "year": 2020,
    "month": 3,
    "day": 29,
    "hour": 13,
    "minute": 7,
    "second": 3,
    "millisecond": 0,
    "tzoffsetMinutes": 120,
    "rawValue": "2020:03:29 13:07:03+02:00"
  },
  "Rating": 5,
  "CreatorTool": "Adobe Photoshop Lightroom Classic 7.4 (Windows)",
  "Format": "image/jpeg",
  "Lens": "EF-S18-135mm f/3.5-5.6 IS STM",
  "ImageNumber": 0,
  "ApproximateFocusDistance": 1.39,
  "FlashCompensation": 0,
  "Firmware": "1.1.5",
  "DateCreated": {
    "year": 2020,
    "month": 3,
    "day": 28,
    "hour": 20,
    "minute": 25,
    "second": 15,
    "millisecond": 0,
    "rawValue": "2020:03:28 20:25:15.00"
  },
  "DocumentID": "xmp.did:3a4146c0-33dd-014b-b70e-f2fcdd60ffaf",
  "OriginalDocumentID": "C4CEBFD8B6A782A5E0DC32AFE31D6D09",
  "InstanceID": "xmp.iid:3a4146c0-33dd-014b-b70e-f2fcdd60ffaf",
  "Marked": true,
  "RawFileName": "20200328-_MG_4991.cr2",
  "Version": 10.4,
  "ProcessVersion": 10,
  "ColorTemperature": 3250,
  "Tint": "+5",
  "Saturation": 0,
  "Sharpness": 40,
  "LuminanceSmoothing": 0,
  "ColorNoiseReduction": 25,
  "VignetteAmount": 0,
  "ShadowTint": 0,
  "RedHue": 0,
  "RedSaturation": 0,
  "GreenHue": 0,
  "GreenSaturation": 0,
  "BlueHue": 0,
  "BlueSaturation": 0,
  "Vibrance": "+21",
  "HueAdjustmentRed": 0,
  "HueAdjustmentOrange": 0,
  "HueAdjustmentYellow": 0,
  "HueAdjustmentGreen": 0,
  "HueAdjustmentAqua": 0,
  "HueAdjustmentBlue": 0,
  "HueAdjustmentPurple": 0,
  "HueAdjustmentMagenta": 0,
  "SaturationAdjustmentRed": 0,
  "SaturationAdjustmentOrange": 0,
  "SaturationAdjustmentYellow": 0,
  "SaturationAdjustmentGreen": 0,
  "SaturationAdjustmentAqua": 0,
  "SaturationAdjustmentBlue": 0,
  "SaturationAdjustmentPurple": 0,
  "SaturationAdjustmentMagenta": 0,
  "LuminanceAdjustmentRed": 0,
  "LuminanceAdjustmentOrange": 0,
  "LuminanceAdjustmentYellow": 0,
  "LuminanceAdjustmentGreen": 0,
  "LuminanceAdjustmentAqua": 0,
  "LuminanceAdjustmentBlue": 0,
  "LuminanceAdjustmentPurple": 0,
  "LuminanceAdjustmentMagenta": 0,
  "SplitToningShadowHue": 0,
  "SplitToningShadowSaturation": 0,
  "SplitToningHighlightHue": 0,
  "SplitToningHighlightSaturation": 0,
  "SplitToningBalance": 0,
  "ParametricShadows": 0,
  "ParametricDarks": 0,
  "ParametricLights": 0,
  "ParametricHighlights": 0,
  "ParametricShadowSplit": 25,
  "ParametricMidtoneSplit": 50,
  "ParametricHighlightSplit": 75,
  "SharpenRadius": "+1.0",
  "SharpenDetail": 25,
  "SharpenEdgeMasking": 0,
  "PostCropVignetteAmount": 0,
  "GrainAmount": 0,
  "ColorNoiseReductionDetail": 50,
  "ColorNoiseReductionSmoothness": 50,
  "LensProfileEnable": 0,
  "LensManualDistortionAmount": 0,
  "PerspectiveVertical": 0,
  "PerspectiveHorizontal": 0,
  "PerspectiveRotate": 0,
  "PerspectiveScale": 100,
  "PerspectiveAspect": 0,
  "PerspectiveUpright": 0,
  "PerspectiveX": 0,
  "PerspectiveY": 0,
  "AutoLateralCA": 0,
  "Exposure2012": 0,
  "Contrast2012": 0,
  "Highlights2012": -21,
  "Shadows2012": 0,
  "Whites2012": "+24",
  "Blacks2012": -29,
  "Clarity2012": 0,
  "DefringePurpleAmount": 0,
  "DefringePurpleHueLo": 30,
  "DefringePurpleHueHi": 70,
  "DefringeGreenAmount": 0,
  "DefringeGreenHueLo": 40,
  "DefringeGreenHueHi": 60,
  "Dehaze": 0,
  "ToneMapStrength": 0,
  "ConvertToGrayscale": false,
  "OverrideLookVignette": false,
  "ToneCurveName": "Linear",
  "ToneCurveName2012": "Linear",
  "CameraProfile": "Adobe Standard",
  "CameraProfileDigest": "BA45C872F6A5D11497D00CBA08D5783F",
  "LensProfileSetup": "LensDefaults",
  "UprightVersion": 151388160,
  "UprightCenterMode": 0,
  "UprightCenterNormX": 0.5,
  "UprightCenterNormY": 0.5,
  "UprightFocalMode": 0,
  "UprightFocalLength35mm": 35,
  "UprightPreview": false,
  "UprightTransformCount": 6,
  "UprightFourSegmentsCount": 0,
  "HasSettings": true,
  "HasCrop": false,
  "AlreadyApplied": true,
  "Creator": ["daniel@woss.io"],
  "Title": "Artist deep into to wine and flower",
  "Rights": "daniel@woss.io",
  "Description": "I took the macro photo and she decided to paint it.",
  "Subject": ["elena_tairova", "flickr", "indoor", "painting", "red-wine"],
  "History": [
    {
      "Action": "converted",
      "Parameters": "from image/x-canon-cr2 to image/dng"
    },
    {
      "Action": "saved",
      "Changed": "/metadata",
      "InstanceID": "xmp.iid:dc336491-3ad3-d14d-b6d5-09674661b15f",
      "SoftwareAgent": "Adobe Photoshop Lightroom Classic 7.4 (Windows)",
      "When": "2020:03:29 12:23:20+02:00"
    },
    {
      "Action": "derived",
      "Parameters": "converted from image/dng to image/jpeg, saved to new location"
    },
    {
      "Action": "saved",
      "Changed": "/",
      "InstanceID": "xmp.iid:3a4146c0-33dd-014b-b70e-f2fcdd60ffaf",
      "SoftwareAgent": "Adobe Photoshop Lightroom Classic 7.4 (Windows)",
      "When": "2020:03:29 13:07:03+02:00"
    }
  ],
  "DerivedFrom": {
    "DocumentID": "xmp.did:dc:336491-3ad3-d14d-b6d5-09674661b15f",
    "InstanceID": "xmp.iid:dc:336491-3ad3-d14d-b6d5-09674661b15f",
    "OriginalDocumentID": "C4CEBFD8B6A782A5E0DC32AFE31D6D09"
  },
  "ToneCurve": ["0, 0", "255, 255"],
  "ToneCurveRed": ["0, 0", "255, 255"],
  "ToneCurveGreen": ["0, 0", "255, 255"],
  "ToneCurveBlue": ["0, 0", "255, 255"],
  "ToneCurvePV2012": ["0, 0", "255, 255"],
  "ToneCurvePV2012Red": ["0, 0", "255, 255"],
  "ToneCurvePV2012Green": ["0, 0", "255, 255"],
  "ToneCurvePV2012Blue": ["0, 0", "255, 255"],
  "CircularGradientBasedCorrections": [
    {
      "CorrectionActive": true,
      "CorrectionAmount": 1,
      "CorrectionMasks": [
        {
          "Angle": 0,
          "Bottom": 0.5938,
          "Feather": "+50",
          "Flipped": true,
          "Left": 0.610834,
          "MaskValue": 1,
          "Midpoint": "+50",
          "Right": 0.693514,
          "Roundness": 0,
          "Top": 0.425975,
          "Version": "+2",
          "What": "Mask/CircularGradient"
        }
      ],
      "CorrectionRangeMask": {
        "ColorAmount": 0.5,
        "LumFeather": 0.5,
        "LumMax": 1,
        "LumMin": 0,
        "Type": 0,
        "Version": "+2"
      },
      "LocalBlacks2012": -0.2093,
      "LocalBrightness": 0,
      "LocalClarity2012": 0.5814,
      "LocalContrast2012": 0.2093,
      "LocalDefringe": 0,
      "LocalDehaze": 0.14729,
      "LocalExposure2012": 0,
      "LocalHighlights2012": 0,
      "LocalLuminanceNoise": 0.4,
      "LocalMoire": 0,
      "LocalSaturation": 0,
      "LocalShadows2012": 0,
      "LocalSharpness": 0,
      "LocalTemperature": 0,
      "LocalTint": 0,
      "LocalToningHue": 0,
      "LocalToningSaturation": 0,
      "LocalWhites2012": 0,
      "What": "Correction"
    }
  ],
  "Look": {
    "Amount": 1,
    "Group": "Profiles",
    "Name": "Adobe Color",
    "Parameters": {
      "CameraProfile": "Adobe Standard",
      "ConvertToGrayscale": false,
      "LookTable": "E1095149FDB39D7A057BAB208837E2E1",
      "ProcessVersion": 10,
      "ToneCurvePV2012": ["0, 0", "22, 16", "40, 35", "127, 127", "224, 230", "240, 246", "255, 255"],
      "ToneCurvePV2012Blue": ["0, 0", "255, 255"],
      "ToneCurvePV2012Green": ["0, 0", "255, 255"],
      "ToneCurvePV2012Red": ["0, 0", "255, 255"],
      "Version": 10.4
    },
    "SupportsAmount": false,
    "SupportsMonochrome": false,
    "SupportsOutputReferred": false,
    "Uuid": "B952C231111CD8E0ECCF14B86BAA7077"
  },
  "DCTEncodeVersion": 100,
  "APP14Flags0": "[14], Encoded with Blend=1 downsampling",
  "APP14Flags1": "(none)",
  "ColorTransform": "YCbCr",
  "ImageWidth": 2000,
  "ImageHeight": 1333,
  "EncodingProcess": "Baseline DCT, Huffman coding",
  "BitsPerSample": 8,
  "ColorComponents": 3,
  "YCbCrSubSampling": "YCbCr4:4:4 (1 1)",
  "Aperture": 4.5,
  "ImageSize": "2000x1333",
  "Megapixels": 2.7,
  "ScaleFactor35efl": 1.6,
  "ShutterSpeed": "1/25",
  "SubSecCreateDate": {
    "year": 2020,
    "month": 3,
    "day": 28,
    "hour": 20,
    "minute": 25,
    "second": 15,
    "millisecond": 0,
    "rawValue": "2020:03:28 20:25:15.00"
  },
  "DateTimeCreated": {
    "year": 2020,
    "month": 3,
    "day": 28,
    "hour": 20,
    "minute": 25,
    "second": 15,
    "millisecond": 0,
    "rawValue": "2020:03:28 20:25:15"
  },
  "DigitalCreationDateTime": {
    "year": 2020,
    "month": 3,
    "day": 28,
    "hour": 20,
    "minute": 25,
    "second": 15,
    "millisecond": 0,
    "rawValue": "2020:03:28 20:25:15"
  },
  "CircleOfConfusion": "0.019 mm",
  "DOF": "0.26 m (1.27 - 1.53 m)",
  "FOV": "36.0 deg",
  "FocalLength35efl": "35.0 mm (35 mm equivalent: 55.5 mm)",
  "HyperfocalDistance": "14.36 m",
  "LightValue": 5,
  "LensID": "Canon EF-S 18-135mm f/3.5-5.6 IS STM"
}
